ModusTest.class
MeanTest.class
MenuTest.class
WriteFrekuensiTest$1.class
WriteMeanTest.class
WriteMeanTest$1.class
MedianTest.class
FrekuensiTest.class
ReadAndConvertToListTest.class
WriteFrekuensiTest.class
